{
	OrderNumber:"ORD1234",
	Date:"2018-08-18T16:30:00.000Z",
	Customer:{
		Name:"Bob & Sons Supermarket",
		AccountNumber:45927
	},
	OrderLines:[
		{
			Quantity:1000,
			Product:{
				Name:"Royal Gala Apple",
				Price:0.29
			}
		},
		{
			Quantity:500,
			Product:{
				Name:"Brown Bread Loaf",
				Price:1.20
			}
		},
		{
			Quantity:400,
			Product:{
				Name:"Semi Skimmed Milk, 4 Pints",
				Price:1.00
			}
		}
	]
}